acpi                                            install
aptitude                                        install
balena-etcher-electron                          install
build-essential                                 install
deja-dup                                        deinstall
exfat-utils                                     install
fping                                           install
gnome-firmware                                  install
gnome-tweak-tool                                install
gnome-shell-extension-manager                   install
gnome-weather                                   install
hddtemp                                         install
htop                                            install
intel-microcode                                 install
linux-generic-hwe-20.04                         install
lm-sensors                                      install
mc                                              install
mesa-utils                                      install
ncdu                                            install
net-tools                                       install
nfs-common                                      install
nmap                                            install
psensor                                         install
ssh                                             install
stacer                                          install
thunderbird                                     deinstall
thunderbird-gnome-support                       deinstall
thunderbird-locale-en                           deinstall
thunderbird-locale-en-us                        deinstall
tldr                                            install
tree                                            install
ubuntu-wallpapers                               install
ubuntu-wallpapers-karmic                        install
ubuntu-wallpapers-lucid                         install
ubuntu-wallpapers-maverick                      install
ubuntu-wallpapers-natty                         install
ubuntu-wallpapers-oneiric                       install
ubuntu-wallpapers-precise                       install
ubuntu-wallpapers-quantal                       install
ubuntu-wallpapers-raring                        install
ubuntu-wallpapers-saucy                         install
ubuntu-wallpapers-trusty                        install
ubuntu-wallpapers-utopic                        install
ubuntu-wallpapers-vivid                         install
ubuntu-wallpapers-wily                          install
ubuntu-wallpapers-xenial                        install
whois                                           install
